Statistical Models in Psychology and Neuroscience: A Survey – 9 Confirmatory factor analysis
…
Figure 9.1: Confirmatory factor model for the Holzinger & Swineford data. Source: https://lavaan.ugent.be/tutorial/cfa.html

The data from the study is ‘built-in’ to the lavaan package, which means that after you’ve loaded lavaan using library("lavaan"), the dataset will be accessible as the named variable HolzingerSwineford1939.

HolzingerSwineford1939 |>
  as_tibble() # convert from data.frame to tibble for printing

# A tibble: 301 × 15
      id   sex ageyr agemo school  grade    x1    x2    x3    x4    x5    x6
   <int> <int> <int> <int> <fct>   <int> <dbl> <dbl> <dbl> <dbl> <dbl> <dbl>
 1     1     1    13     1 Pasteur     7  3.33  7.75 0.375  2.33  5.75 1.29 
 2     2     2    13     7 Pasteur     7  5.33  5.25 2.12   1.67  3    1.29 
 3     3     2    13     1 Pasteur     7  4.5   5.25 1.88   1     1.75 0.429
 4     4     1    13     2 Pasteur     7  5.33  7.75 3      2.67  4.5  2.43 
 5     5     2    12     2 Pasteur     7  4.83  4.75 0.875  2.67  4    2.57 
 6     6     2    14     1 Pasteur     7  5.33  5    2.25   1     3    0.857
 7     7     1    12     1 Pasteur     7  2.83  6    1      3.33  6    2.86 
 8     8     2    12     2 Pasteur     7  5.67  6.25 1.88   3.67  4.25 1.29 
 9     9     2    13     0 Pasteur     7  4.5   5.75 1.5    2.67  5.75 2.71 
10    11     2    12     5 Pasteur     7  3.5   5.25 0.75   2.67  5    2.57 
# ℹ 291 more rows
# ℹ 3 more variables: x7 <dbl>, x8 <dbl>, x9 <dbl>
…
