Statistical Models in Psychology and Neuroscience: A Survey – 8 Mediation models
…
Figure 8.1: A basic three-variable mediation structure

In this example, we are interested in the effect on productivity of having people work on-site in an office (in-person working, or IP) versus at home. Let’s say that we have surveyed 1,000 firms and calculate the proportion of employees located at the main worksite (IP) and obtained a measure of each firm’s productivity (PR). Download the (simulated; not real) data if you want to follow along.

## first load in the data
library("tidyverse")
library("lavaan")

wpdat <- read_csv("data/workplace.csv", col_types = "ddd")

wpdat

# A tibble: 1,000 × 3
      IP    OI    PR
   <dbl> <dbl> <dbl>
 1 0.202  75.8  93.7
 2 0.393  84.1  96.8
 3 0.367  80.5  64.8
 4 0.556  74.6  72.3
 5 0.538  64.0  54.0
 6 0.720  91.2  72.8
 7 0.494  79.3  71.1
 8 0.385  60.8  58.2
 9 0.334  90.6  94.1
10 0.483  67.2  82.5
# ℹ 990 more rows
…
