Statistical Models in Psychology and Neuroscience: A Survey – 3 Multiple regression
…
Let’s look at some (made up, but realistic) data to see how we can use multiple regression to answer various study questions. In this hypothetical study, you have a dataset for 100 statistics students, which includes their final course grade (grade), the number of lectures each student attended (lecture, an integer ranging from 0-10), how many times each student clicked to download online materials (nclicks) and each student’s grade point average prior to taking the course, GPA, which ranges from 0 (fail) to 4 (highest possible grade).

3.1.1 Data import and visualization

Let’s load in the data grades.csv and have a look.

library("corrr") # correlation matrices
library("tidyverse")

grades <- read_csv("data/grades.csv", col_types = "ddii")

grades

# A tibble: 100 × 4
   grade   GPA lecture nclicks
   <dbl> <dbl>   <int>   <int>
 1  4     2.52      10     108
 2  3.02  2.73       7      93
 3  1.47  1.55       4      71
 4  1.21  2.55      10     101
 5  1.90  2.46       9      84
 6  3.38  2.25       6      93
 7  4     3.45       8     135
 8  3.47  2.96       6     126
 9  2.59  3.22       7     109
10  1.87  2.64       7      74
# ℹ 90 more rows
…
\[
z = \frac{X - \bar{X}}{S_x}
\]

A \(z\) score represents the distance of a score \(X\) from the sample mean (\(\bar{X}\)) in standard deviation units (\(S_x\)). So a \(z\) score of 1 means that the score is one standard deviation about the mean; a \(z\)-score of -2.5 means 2.5 standard deviations below the mean. \(Z\)-scores give us a way of comparing things that come from different populations by calibrating them to the standard normal distribution (a distribution with a mean of 0 and a standard deviation of 1).

So we re-scale our predictors by converting them to \(z\)-scores. This is easy enough to do.

grades2 <- grades |>
  mutate(lecture_z = (lecture - mean(lecture)) / sd(lecture),
         nclicks_z = (nclicks - mean(nclicks)) / sd(nclicks))

grades2

# A tibble: 100 × 6
   grade   GPA lecture nclicks lecture_z nclicks_z
   <dbl> <dbl>   <int>   <int>     <dbl>     <dbl>
 1  4     2.52      10     108     1.72      0.670
 2  3.02  2.73       7      93     0        -0.444
 3  1.47  1.55       4      71    -1.72     -2.08 
 4  1.21  2.55      10     101     1.72      0.150
 5  1.90  2.46       9      84     1.15     -1.11 
 6  3.38  2.25       6      93    -0.574    -0.444
 7  4     3.45       8     135     0.574     2.68 
 8  3.47  2.96       6     126    -0.574     2.01 
 9  2.59  3.22       7     109     0         0.745
10  1.87  2.64       7      74     0        -1.86 
# ℹ 90 more rows
…
lecture_mean <- grades |> pull(lecture) |> mean()
min_nclicks <- grades |> pull(nclicks) |> min()
max_nclicks <- grades |> pull(nclicks) |> max()

## new data for prediction
new_nclicks <- tibble(lecture = lecture_mean,
                      nclicks = min_nclicks:max_nclicks)

## add the predicted value to new_lecture
new_nclicks2 <- new_nclicks |>
  mutate(grade = predict(my_model, new_nclicks))

new_nclicks2

# A tibble: 66 × 3
   lecture nclicks grade
     <dbl>   <int> <dbl>
 1       7      71  1.48
 2       7      72  1.52
 3       7      73  1.55
 4       7      74  1.59
 5       7      75  1.62
 6       7      76  1.65
 7       7      77  1.69
 8       7      78  1.72
 9       7      79  1.76
10       7      80  1.79
# ℹ 56 more rows
…
